# A tibble: 180 x 88
# Groups:   subject [30]
   subject activity TimeBodyAcceler~ TimeBodyAcceler~ TimeBodyAcceler~ TimeGravityAcce~ TimeGravityAcce~ TimeGravityAcce~
     <int> <fct>               <dbl>            <dbl>            <dbl>            <dbl>            <dbl>            <dbl>
 1       1 LAYING              0.222         -0.0405           -0.113            -0.249            0.706           0.446 
 2       1 SITTING             0.261         -0.00131          -0.105             0.832            0.204           0.332 
 3       1 STANDING            0.279         -0.0161           -0.111             0.943           -0.273           0.0135
 4       1 WALKING             0.277         -0.0174           -0.111             0.935           -0.282          -0.0681
 5       1 WALKING~            0.289         -0.00992          -0.108             0.932           -0.267          -0.0621
 6       1 WALKING~            0.255         -0.0240           -0.0973            0.893           -0.362          -0.0754
 7       2 LAYING              0.281         -0.0182           -0.107            -0.510            0.753           0.647 
 8       2 SITTING             0.277         -0.0157           -0.109             0.940           -0.106           0.199 
 9       2 STANDING            0.278         -0.0184           -0.106             0.897           -0.370           0.130 
10       2 WALKING             0.276         -0.0186           -0.106             0.913           -0.347           0.0847
# ... with 170 more rows, and 80 more variables: TimeBodyAccelerometerJerk.mean...X <dbl>,
#   TimeBodyAccelerometerJerk.mean...Y <dbl>, TimeBodyAccelerometerJerk.mean...Z <dbl>, TimeBodyGyroscope.mean...X <dbl>,
#   TimeBodyGyroscope.mean...Y <dbl>, TimeBodyGyroscope.mean...Z <dbl>, TimeBodyGyroscopeJerk.mean...X <dbl>,
#   TimeBodyGyroscopeJerk.mean...Y <dbl>, TimeBodyGyroscopeJerk.mean...Z <dbl>,
#   TimeBodyAccelerometerMagnitude.mean.. <dbl>, TimeGravityAccelerometerMagnitude.mean.. <dbl>,
#   TimeBodyAccelerometerJerkMagnitude.mean.. <dbl>, TimeBodyGyroscopeMagnitude.mean.. <dbl>,
#   TimeBodyGyroscopeJerkMagnitude.mean.. <dbl>, FrequencyBodyAccelerometer.mean...X <dbl>,
#   FrequencyBodyAccelerometer.mean...Y <dbl>, FrequencyBodyAccelerometer.mean...Z <dbl>,
#   FrequencyBodyAccelerometer.meanFreq...X <dbl>, FrequencyBodyAccelerometer.meanFreq...Y <dbl>,
…
